16808 475814 449
653318 945627 525
111219 212213 383
27747 853793 525
780840 241724 509
566087 440396 470
488061 243191 449
808216 524778 509
285210 531762 470
380487 542899 470
546096 836118 509
820238 101154 509
133195 573196 470
493494 283087 449
353603 798346 509
903006 811099 525
614639 929470 525
726971 879042 525
583696 382398 470
240836 560390 470
513028 14893 470
904496 822571 525
128284 92058 354
427941 897890 525
641365 188232 509
38294 923204 525
617729 359125 470
517211 572205 452
790213 706051 468
513435 61164 470
731607 456833 509
730766 119395 509
802038 808974 406
542120 847797 525
312299 375250 441
262449 940630 525
29826 411938 449
626140 391809 470
743104 554751 509
342696 4978 443
727670 220633 509
75698 449458 449
550246 936898 525
33268 813519 509
323744 198115 443
783189 822438 468
801012 249087 509
409291 735199 509
938485 133952 525
355595 54929 443
853808 846906 419
785104 956593 525
111798 621813 470
156624 982538 525
724589 480045 509
625712 949444 525
962126 848000 507
856318 269915 525
98829 881312 525
831037 90973 509
400651 674736 509
441607 689787 509
716510 329017 509
123142 205561 383
471783 912325 525
801751 288166 509
842727 182779 525
532424 635486 509
187842 825345 509
976192 863532 507
251125 728934 509
317127 153694 443
635839 821545 504
556249 113106 470
438418 79105 449
499965 940225 525
649636 976176 525
584825 347926 470
112834 559557 470
951574 589575 525
237188 131553 443
47486 477643 449
935359 332967 525
898051 988453 507
716435 142297 509
725789 919197 525
941758 319435 525
608149 561159 434
437637 145740 449
811986 766902 468
598886 309160 470
198747 759540 509
402046 243310 441
416415 898788 525
141698 686117 509
30169 534141 470
338314 703426 509
164872 665519 509
50129 798728 509
456566 27695 449
578203 980310 525
883057 594495 525
91349 303058 443
115300 742242 509
123114 121176 336
492030 414312 444
977714 124345 525
733395 833284 468
537247 276412 470
825946 708 509
741140 404123 509
979984 3057 525
65832 999538 525
832741 692260 504
541413 460238 470
472591 304383 449
122431 919581 525
115690 644038 509
852332 829930 525
31550 224980 386
19467 305344 443
18864 270971 443
172532 234411 443
590967 863767 525
965956 604978 525
277847 887641 525
764129 943120 525
430022 56644 449
648134 498654 509
797412 201607 509
398464 640334 509
42416 530531 470
691210 997926 525
244973 589177 470
77086 993214 525
751406 841594 525
205875 135413 383
424537 961816 525
309985 341071 384
227365 926361 525
542809 301461 470
939377 487020 525
103553 351902 443
35335 8776 311
661959 848458 525
881766 725806 525
582796 266588 470
651450 265044 509
181716 48049 383
667294 758589 504
173044 930457 525
787505 283087 509
205643 663013 509
496345 571654 470
886021 194403 525
611430 843392 525
517936 699101 509
954593 661285 525
187972 222406 386
229963 324309 443
478312 798128 509
986306 621948 525
624301 51033 470
307968 978722 525
578256 240439 470
861700 56464 525
566 639223 509
981401 862865 507
778453 69297 509
16504 295038 443
648365 210635 509
672162 677675 385
840202 845295 401
341979 988963 525
546416 776834 509
563334 252955 470
931318 603961 525
502591 969063 525
28236 344062 443
316056 723260 509
780124 106167 509
862094 789404 525
821764 66910 509
548892 249436 470
856454 426928 525
407454 721060 509
715257 424480 509
206349 166496 365
48447 675805 509
742325 288361 509
305232 962590 525
248098 911157 525
604685 135250 470
490609 620546 470
214601 828399 509
465896 484465 413
218878 618703 470
823461 426161 509
559067 282216 470
943505 483501 525
435206 177235 449
309080 255818 407
768623 917082 525
204488 671567 509
394987 84056 443
73691 903416 525
755466 193651 509
918693 710536 525
687533 186310 509
273885 851399 525
668461 79011 509
749659 669004 504
830981 792205 468
57827 322332 443
872927 766984 525
792476 194224 509
427452 319319 449
782747 559281 509
663326 40540 509
784941 521128 509
324487 904956 525
857705 626420 525
424161 82077 449
269505 320004 407
452766 827148 509
838299 439207 525
264785 764690 509
492086 813164 509
195145 229855 386
152484 256175 443
10800 259998 443
245961 416467 449
195784 345068 443
121304 160646 383
334915 32526 443
117130 621866 470
55375 902597 525
116890 517829 470
181800 214326 373
973831 743502 525
509770 249235 449
641432 557274 509
384376 357494 423
819177 205431 509
360849 663163 509
648045 8811 509
904605 869043 445
154831 99024 375
150343 27892 375
181115 497704 449
