291188 39356 443
694459 54062 509
749751 42578 509
886106 76990 525
517246 53318 470
203388 3533 383
369474 31085 443
899808 33602 525
181906 98830 383
89477 68771 351
5247 585 238
702862 73699 509
466119 30141 449
723141 67460 509
176213 7823 383
515031 97822 470
635338 29416 509
134439 9427 354
962453 39347 525
175640 94607 383
177361 93907 383
485281 64065 449
414393 6107 449
576933 14061 470
798465 84757 509
567543 5375 470
776504 83223 509
761868 49366 509
807000 99600 509
907979 98636 525
702817 41770 509
479022 54601 449
660909 38097 509
751652 38056 509
662414 40197 509
617266 54739 470
820522 20557 509
900813 48850 525
516045 6225 470
345418 21354 443
172565 30373 383
118222 66078 354
697569 679 509
705895 21837 509
393507 27146 443
1987 7702 262
551088 11809 470
948683 29855 525
637082 16084 509
349564 17103 443
141832 85205 354
653475 80138 509
97785 85522 333
711474 22179 509
574648 76528 470
928340 67359 525
998261 65136 525
724689 15374 509
955060 38634 525
228809 66093 386
558662 47437 470
959095 24449 525
740212 25851 509
835951 98904 509
122320 6845 354
705199 82844 509
180753 77602 383
254914 92688 443
455576 81723 449
406572 44625 443
51689 53275 340
805845 60030 509
409882 35175 443
259984 79102 443
961118 7491 525
227714 34465 386
747997 3621 509
143736 3926 375
122997 97846 354
893912 61158 525
193611 13715 383
537876 91617 470
471989 96738 449
167105 44195 383
759177 88925 509
471994 26468 449
936996 95679 525
375019 50365 443
322578 56777 443
711820 99539 509
152204 64416 375
317682 8948 443
154752 77547 375
902614 92384 525
469512 15704 449
37269 80084 351
909841 87299 525
65895 10488 340
367933 50884 443
337804 57376 443
320880 38378 443
966383 76886 525
116046 65217 354
118959 54665 354
4814 46472 324
236524 76015 443
798721 72838 509
571422 73801 470
44031 92713 351
259630 25779 443
298971 9483 443
690869 27588 509
386246 67318 443
619050 70572 470
503967 82511 449
909697 47766 525
309265 6669 443
111131 39577 354
760096 41657 509
378138 83634 443
575073 38200 470
950334 93892 525
197276 39489 383
355676 56300 443
24201 28757 308
269053 35495 443
426407 77695 449
46187 24774 324
230890 85788 443
81035 52969 351
650500 18171 509
588111 78941 470
409426 15141 443
413484 86479 449
443536 7638 449
962839 39802 525
434691 24639 449
420811 51752 449
949134 96264 525
901681 91206 525
905995 85007 525
810710 53013 509
159065 79537 383
659258 7716 509
550542 68009 470
153220 28501 375
273638 56296 443
189216 773 383
954777 20838 525
366789 23110 443
422729 47118 449
445330 74311 449
757006 91481 509
517795 25639 470
671036 28993 509
707883 7644 509
104414 38423 351
452047 76702 449
403899 28197 443
167638 78162 383
880006 34855 525
698096 72139 509
576392 3860 470
865116 52340 525
518419 49917 470
957890 53171 525
75738 33237 340
312771 53422 443
811974 43299 509
567292 2219 470
764245 90782 509
602654 81168 470
822177 60272 509
646342 42042 509
680210 32041 509
208926 79551 383
649040 21745 509
742269 42677 509
308537 19479 443
785010 45177 509
353496 65343 443
282307 51060 443
688734 15583 509
290386 13052 443
939847 78419 525
497922 20927 449
161262 14886 383
86956 98406 333
669481 49718 509
723719 63626 509
