1 10 20
100 200 125
201 210 89
900 1000 174
703627 839266 525
507414 487920 426
39616 228815 386
562064 658545 509
827934 82694 509
30229 257096 443
931084 356010 525
511328 249189 449
742089 890476 525
349211 447449 449
572201 580579 390
826515 333138 509
21071 299077 443
675770 287733 509
732924 461109 509
15106 487021 449
306730 357217 441
17551 966704 525
764230 827352 468
85634 738903 509
253810 744874 509
865638 779599 525
546411 934055 525
405620 936738 525
883575 534734 525
268843 922077 525
115418 921056 525
207375 608365 470
125123 234229 443
830733 376621 509
32822 329145 443
705074 442443 509
795899 946875 525
745221 782549 468
722877 265222 509
981821 296166 525
845299 966317 507
835541 3301 509
672059 986264 525
391487 306967 441
2887 578217 470
524071 112764 470
776738 108549 509
100802 298999 443
670272 800020 504
313441 521427 470
327556 28560 443
93967 771322 509
876955 153316 525
740067 586131 509
740403 310969 509
588498 940024 525
26104 759920 509
688765 906262 525
911778 432116 525
684212 497882 509
577180 447272 470
323993 615734 470
798647 984525 525
73199 275712 443
186516 749230 509
161472 662545 509
307682 31220 443
486462 786393 509
579596 292265 470
566380 117416 470
341395 14822 443
94462 597889 470
204299 608731 470
275946 529268 470
383 789065 509
218476 222833 355
994086 131200 525
844975 672393 525
820725 442379 509
393223 292463 441
58184 364922 443
705464 468229 509
273923 658392 509
628675 682743 442
180991 957225 525
803256 114889 509
617024 540493 452
42609 709084 509
981395 282740 525
176946 75031 383
233465 862089 525
786703 854713 525
267982 777 443
896945 597684 525
12004 468891 449
467576 36829 449
156547 42189 383
494053 131674 449
701837 332916 509
670439 597899 509
216906 615381 470
208276 280048 443
426161 347575 449
37344 880616 525
768821 395469 509
46060 767651 509
640854 428520 509
815983 29647 509
515455 396645 470
680251 414505 509
562663 276706 470
540010 326393 470
472418 757290 509
764347 411548 509
939331 13769 525
982404 458311 525
533225 592658 452
525726 716000 509
361088 31840 443
633358 373815 509
263824 150931 443
150510 361581 443
334197 745335 509
209546 149045 383
498339 770366 509
214182 724404 509
904180 976508 507
468520 527563 470
462252 605567 470
9017 646894 509
142018 8672 354
372401 975540 525
17739 43434 324
246510 608196 470
3654 582606 470
10923 130811 354
384252 751229 509
471915 169914 449
950437 526667 525
799803 513692 509
220261 153046 386
915069 376391 525
73922 236969 443
381817 693819 509
120005 587444 470
121223 585451 470
363516 875868 525
580580 512439 452
280630 848789 525
446840 850097 525
774348 345411 509
17687 870673 525
267599 844143 525
239974 406998 441
838729 462641 525
159512 815866 509
609858 659662 509
36661 138712 354
259801 640728 509
191991 362942 443
430374 352821 449
645711 139708 509
534642 225661 470
689035 722407 504
344245 199073 443
38209 919698 525
60552 465313 449
355047 505813 449
111349 68344 354
766453 442567 509
209303 205218 373
220814 176869 386
251627 191947 443
922073 627243 525
368244 921445 525
836026 204792 509
691665 792200 504
559462 669575 509
875618 86716 525
554844 597251 434
959939 529382 525
332410 855656 525
579468 330042 470
990868 464816 525
229329 701559 509
937906 894689 476
961886 602530 525
865312 880250 432
187128 906657 525
284420 812548 509
819767 633913 504
47754 155858 375
761182 44644 509
761905 874260 525
697870 731725 504
248875 775907 509
497895 531341 470
817409 907497 525
35073 422199 449
788905 24496 509
872151 151699 525
34467 484784 449
618640 871651 525
295322 505798 449
262487 472823 449
655780 1485 509
860776 158696 525
442008 28335 449
952566 168008 525
601343 548503 434
374444 721408 509
169183 242751 443
764925 215062 509
978466 694083 525
641100 461075 509
756172 217106 509
715066 555422 509
616795 93676 470
830076 462697 509
571211 817991 509
812906 79417 509
128586 363045 443
189955 29960 383
941525 122751 525
459828 715322 509
253325 372401 441
520382 63246 470
487598 291952 449
933816 712207 525
560171 81418 470
826579 632379 504
40887 152150 375
455953 262988 449
892514 945842 507
778937 208196 509
195914 746046 509
549831 473398 470
862166 618174 525
759861 847359 525
553391 447888 470
221601 421712 449
82725 59845 351
447119 575637 470
15303 618694 470
691236 685219 398
338874 348353 441
927212 80985 525
185026 653832 509
972937 313860 525
5071 639190 509
188226 247476 443
537408 190154 470
700515 104082 509
528340 818621 509
