593934 354056 470
613110 763172 509
926922 355321 525
132834 687977 509
146087 629849 509
289009 659393 509
903622 640054 525
743692 472611 509
172337 638842 509
694952 393978 509
415024 9692 449
933400 255256 525
903602 638696 525
104200 401891 443
214245 378056 443
702030 322383 509
732111 829344 468
85556 659033 509
184665 732593 509
347011 330752 441
362442 150224 443
504349 780268 509
304482 762245 509
252879 476818 449
401087 947830 525
385000 330315 441
957522 832605 525
99775 375329 443
471301 203974 449
777219 199750 509
582029 479249 470
522133 828344 509
308594 121893 443
487378 493258 426
854485 348593 525
338214 731131 509
13021 356767 443
511399 317503 449
119012 764278 509
308525 520098 470
712108 693525 504
850412 183835 525
40335 950186 525
559164 25840 470
154161 850587 525
225589 250394 443
844041 261926 525
78739 152635 375
383818 80321 443
160097 752507 509
943117 12516 525
483638 956137 525
369282 995037 525
273640 488294 449
273520 582165 470
522596 499832 470
789894 373009 509
683667 830228 504
837399 757035 468
856067 505764 525
121827 595860 470
270363 965867 525
857786 349101 525
632706 755808 504
943625 307008 525
508316 400947 449
319523 991953 525
357084 203009 443
501195 144929 449
691302 288919 509
241298 728103 509
788751 31192 509
101112 472418 449
375624 452715 449
743657 231691 509
472684 865483 525
341755 743046 509
831351 199541 509
606351 978261 525
955349 549976 525
285269 977869 525
950922 604791 525
484027 822210 509
807800 499427 509
481343 13307 449
788345 722640 468
741409 577096 509
753831 356725 509
563718 643659 509
323645 821579 509
389554 796328 509
687063 731309 504
539374 32619 470
930849 145725 525
10880 400403 443
209905 296149 443
378272 675031 509
415144 376504 449
11446 737148 509
875930 492789 525
750455 664275 504
215429 6069 383
755576 483465 509
876998 319294 525
127124 200643 383
655078 516678 509
996970 856345 507
247987 50549 443
888963 693040 525
710477 414047 509
607648 920381 525
224400 500124 449
109617 639544 509
876627 121062 525
376692 752557 509
128055 641351 509
931037 343484 525
826948 38623 509
520111 468276 470
239265 175189 443
984953 750439 525
31534 747144 509
800987 434701 509
954389 25669 525
848748 562037 525
460254 73148 449
62161 569870 470
226896 452993 449
205136 603588 470
205550 333191 443
759143 136587 509
190879 920767 525
337404 532031 470
959389 857515 507
307 198654 383
546908 499465 470
463297 578442 470
246609 778488 509
527347 200998 470
804156 376095 509
963447 853604 507
834279 190343 509
306597 553620 470
308135 26351 443
886810 67279 525
162938 77689 383
502250 14546 449
123924 461640 449
872060 124230 525
660293 933173 525
623694 637795 509
25820 384508 443
416283 553166 470
99710 220440 386
443466 376949 449
484849 406913 449
230553 833333 509
111460 51354 354
386953 933799 525
77704 787967 509
515282 754845 509
379860 17532 443
769391 503783 509
479171 155656 449
142217 653669 509
88829 280116 443
291464 114648 443
664623 707746 504
182019 278537 443
928185 625484 525
169690 927239 525
546601 914446 525
760572 658060 504
965799 661729 525
106064 43504 351
449696 621345 470
798348 343760 509
638877 81944 509
847542 632252 525
237600 989758 525
285921 840632 525
269874 91589 443
955280 448701 525
799335 137299 509
241443 241725 244
276987 411132 449
168964 823587 509
325579 443740 449
481647 805582 509
105469 101916 341
849085 69369 525
723260 161639 509
413128 876341 525
243582 774874 509
508594 995385 525
764633 794514 468
836018 548711 509
400308 791298 509
511617 199643 449
442801 753059 509
955571 719787 525
164191 638740 509
543374 3974 470
82480 539225 470
809556 702153 504
155345 172846 383
285726 878605 525
848688 213059 525
754946 606475 509
987932 263540 525
601860 266770 470
572259 437878 470
815481 972566 525
743380 327098 509
686413 700385 442
80157 156189 383
934376 758551 525
794928 991954 525
276730 391613 441
45385 86286 351
93766 200729 383
773335 893695 525
79334 136229 354
106754 348485 443
742703 94687 509
612024 344563 470
361456 698487 509
296646 691141 509
185258 40026 383
18239 385875 443
254616 612599 470
542064 188992 470
885355 336992 525
180947 162085 365
728604 226331 509
762574 336574 509
427059 50114 449
230270 506393 449
186342 337023 443
369082 929044 525
945913 981105 458
787812 307370 509
193798 84458 383
998510 893259 507
124483 530954 470
279135 379098 441
657757 821198 504
82295 543112 470
672394 263241 509
219401 915203 525
489571 496179 426
251777 430834 449
546293 996250 525
451431 732634 509
847478 820512 525
175884 793391 509
315823 963695 525
614965 509620 470
48153 127681 354
917083 686839 525
172839 196218 365
580142 830595 509
531620 662436 509
887912 718219 525
439881 107313 449
633422 929451 525
603492 885198 525
874489 663989 525
881449 325921 525
910827 728927 525
146433 86711 375
36523 462255 449
564610 165693 470
486079 612762 470
293373 917367 525
813806 466211 509
627789 908152 525
811010 159410 509
570588 698922 509
877628 10469 525
320440 511050 449
454124 438136 400
910452 328613 525
102125 306106 443
168738 12952 383
549237 829375 509
613867 585760 403
805834 692681 504
751452 806118 468
819648 559029 509
723485 633454 504
25240 351274 443
541606 350454 470
510683 626398 509
49377 902515 525
151071 369816 443
927769 605194 525
807951 838222 525
